…
<details>

The classical application of the [bootstrap workflow](https://en.wikipedia.org/wiki/Bootstrapping_(statistics)) is to obtain confidence intervals of a descriptive statistic even when we have no clear idea on its distribution. Let's have a look at the inter-rater reliability problem addressed by [Cohen's kappa metric](https://en.wikipedia.org/wiki/Cohen%27s_kappa) in a simulated data set. Let the `obs` variable represent the observed phenomenon and the `pred` the prediction, each of them being a binary yes/no feature. 

```r
set.seed(1234)

  fct_dataset <-
    data.frame(obs = sample(c('no', 'yes'), size = 100, replace = TRUE),
               pred = sample(c('no', 'yes'), size = 100, replace = TRUE)) %>%
    map_dfc(factor)

> fct_dataset
# A tibble: 100 × 2
   obs   pred 
   <fct> <fct>
 1 yes   yes  
 2 yes   no   
 3 yes   no   
 4 yes   no   
 5 no    no   
 6 yes   yes  
 7 no    no   
 8 no    yes  
 9 no    no   
10 yes   no   
# … with 90 more rows
# ℹ Use `print(n = ...)` to see more rows
…
Canonical bootstrap was designed to tackle independent observations. In many real life analyses, the independence assumption is not met or excluded per data set design. Time series or repeated measurements in a longitudinal observation clinical study are examples of auch auto-correlated or proband-matched data. A straight forward way to use bootstrap in such cases is to sample __blocks__ instead of observations - a strategy called __block bootstrap__. In case of the longitudinal clinical study, with multiple observations for each participants, the blocks are simply defined by unique participant identifiers. 

The methods `sboot()` and `bmap()` for data frames switch to block bootstrap when a name or a vector of names of variables defining the blocks are provided via the `.by` argument. To check it in practice let's calculate fractions of participants infectted with backeria in a longitudinal study of an antibiotic:

```r

## the variable 'y' codes for bacteria presence, 'trt' stordes the information on the drug treatment
## and patient's compliance and 'ID' represents the unique participant's identifier.
## 'ID' will be used as a bloc block-defining variable

my_bacteria <- as_tibble(MASS::bacteria)

> my_bacteria
# A tibble: 220 × 6
   y     ap    hilo   week ID    trt    
   <fct> <fct> <fct> <int> <fct> <fct>  
 1 y     p     hi        0 X01   placebo
 2 y     p     hi        2 X01   placebo
 3 y     p     hi        4 X01   placebo
 4 y     p     hi       11 X01   placebo
 5 y     a     hi        0 X02   drug+  
 6 y     a     hi        2 X02   drug+  
 7 n     a     hi        6 X02   drug+  
 8 y     a     hi       11 X02   drug+  
 9 y     a     lo        0 X03   drug   
10 y     a     lo        2 X03   drug   
# … with 210 more rows
# ℹ Use `print(n = ...)` to see more rows
…
